Aircraft Activity
…
Download and import FAA ownership data

Download the FAA registration database if it doesn’t exist or is too old. This is helpful to ensure that owners named similarly are indeed the same as one another (to clean misspellings, etc.). The variable maxAgeDays is set at 14 initially; this is an arbitrary value. We change the name field as it’s the name of the principal owner, so owner is more specific and will help distinguish from the operator name which we’ll use in a different way (to show who is believed or likely to be using the aircraft).

Warning in unzip(archivePath, files = "MASTER.txt", exdir = extractPath, :
requested file not found in the zip file

Join complaint and ownership data

Our complaints will left join with the ownership data such that, even if there’s an issue with the FAA database, we’ll still have the complaints - it will just be more difficult (or require a different method) to group observations together by owner.

Let’s take a look at some of the operators we found in our complaints, summarized by number of complaints:

# A tibble: 492 × 2
   operator                              n
   <chr>                             <int>
 1 SOLBERG AVIATION CO INC             123
 2 INFINITY FLIGHT GROUP LLC           102
 3 AMERIFLYERS OF TEXAS INC             98
 4 RTD AVIATION LLC                     81
 5 BLUE SKY AVIATION ASSOCIATION INC    72
 6 MUSTANG SALLY AVIATION LLC           58
 7 RARITAN VALLEY FLYING SCHOOL         35
 8 SOLBERG AVN CO INC                   32
 9 SOMERSET AIR SERVICE INC             30
10 Atp Flight School                    28
# ℹ 482 more rows
…
# A tibble: 2 × 4
  operator                           state city              n
  <chr>                              <fct> <fct>         <int>
1 FLYING ZEBRA AIRCRAFT HOLDINGS LLC NY    WEST HARRISON     1
2 FLYING ZEBRA PARTNERS LLC          NY    WEST HARRISON     2

# A tibble: 1 × 4
  operator                 state city        n
  <chr>                    <fct> <fct>   <int>
1 AMERIFLYERS OF TEXAS INC TX    ADDISON    98

Some data suggests that these aircraft from Christiansen and Mustang Sally are all being leased and/or being used for training flights by Infinity Flight Group out of TTN. SvetFur aircraft are also flying out of TTN and taxiing back to the same tiedown as Infinity aircraft. Further, SvetFur shares an agent with Mustang Sally Aviation. This seems sufficient to suspect they’re all being operated as training flights by Infinity Flight group for our analysis.

# A tibble: 492 × 2
   operator                              n
   <chr>                             <int>
 1 SOLBERG AVIATION CO INC             123
 2 INFINITY FLIGHT GROUP LLC           102
 3 AMERIFLYERS OF TEXAS INC             98
 4 RTD AVIATION LLC                     81
 5 BLUE SKY AVIATION ASSOCIATION INC    72
 6 MUSTANG SALLY AVIATION LLC           58
 7 RARITAN VALLEY FLYING SCHOOL         35
 8 SOLBERG AVN CO INC                   32
 9 SOMERSET AIR SERVICE INC             30
10 Atp Flight School                    28
# ℹ 482 more rows

# A tibble: 486 × 2
   operator               n
   <chr>              <int>
 1 Infinity Flt Grp     209
 2 Solberg Avn          155
 3 American Flyers       99
 4 TriState Avn          81
 5 Blue Sky Avn Assoc    72
 6 Somerset Air Svc      59
 7 Princeton Fl Schl     35
 8 Atp Flight School     28
 9 Netjets Aviation      23
10 United Airlines       21
# ℹ 476 more rows
…
